{
  "message": "",
  "result": {
    "data": [
      {
        "id": 1,
        "cover": "https://gw.alipayobjects.com/zos/rmsportal/WdGqmHpayyMjiEhcKoVE.png",
        "title": "Alipay",
        "description": "那是一种内在的东西， 他们到达不了，也无法触及的",
        "status": 1,
        "updatedAt": "2011-12-15 09:18:38"
      },
      {
        "id": 2,
        "cover": "https://gw.alipayobjects.com/zos/rmsportal/zOsKZmFRdUtvpqCImOVY.png",
        "title": "Angular",
        "description": "希望是一个好东西，也许是最好的，好东西是不会消亡的",
        "status": 1,
        "updatedAt": "1996-04-18 12:14:07"
      },
      {
        "id": 3,
        "cover": "https://gw.alipayobjects.com/zos/rmsportal/ComBAopevLwENQdKWiIn.png",
        "title": "Vue",
        "description": "生命就像一盒巧克力，结果往往出人意料",
        "status": 1,
        "updatedAt": "2007-11-12 22:51:12"
      },
      {
        "id": 4,
        "cover": "https://gw.alipayobjects.com/zos/rmsportal/WdGqmHpayyMjiEhcKoVE.png",
        "title": "Alipay",
        "description": "那是一种内在的东西， 他们到达不了，也无法触及的",
        "status": 1,
        "updatedAt": "2010-06-06 14:25:16"
      },
      {
        "id": 5,
        "cover": "https://gw.alipayobjects.com/zos/rmsportal/zOsKZmFRdUtvpqCImOVY.png",
        "title": "Angular",
        "description": "希望是一个好东西，也许是最好的，好东西是不会消亡的",
        "status": 1,
        "updatedAt": "1977-05-16 09:52:10"
      },
      {
        "id": 6,
        "cover": "https://gw.alipayobjects.com/zos/rmsportal/ComBAopevLwENQdKWiIn.png",
        "title": "Vue",
        "description": "生命就像一盒巧克力，结果往往出人意料",
        "status": 1,
        "updatedAt": "2009-07-18 18:40:34"
      }
    ],
    "pageSize": 10,
    "pageNo": 0,
    "totalPage": 6,
    "totalCount": 57
  },
  "status": 200,
  "timestamp": "1542785605765"
}