{
  "message": "",
  "result": {
    "data": [
      {
        "key": 1,
        "no": "No 1",
        "description": "层化备约老。",
        "callNo": 615,
        "status": 1,
        "updatedAt": "1998-08-15"
      },
      {
        "key": 2,
        "no": "No 2",
        "description": "习有加学。",
        "callNo": 967,
        "status": 1,
        "updatedAt": "1984-05-19"
      },
      {
        "key": 3,
        "no": "No 3",
        "description": "图人消系厂。",
        "callNo": 859,
        "status": 1,
        "updatedAt": "1980-08-03"
      },
      {
        "key": 4,
        "no": "No 4",
        "description": "者消老转来率飞。",
        "callNo": 931,
        "status": 1,
        "updatedAt": "1985-01-12"
      },
      {
        "key": 5,
        "no": "No 5",
        "description": "般美等图党所。",
        "callNo": 802,
        "status": 1,
        "updatedAt": "2016-01-05"
      },
      {
        "key": 6,
        "no": "No 6",
        "description": "安备解资科白约率。",
        "callNo": 538,
        "status": 1,
        "updatedAt": "2004-04-22"
      },
      {
        "key": 7,
        "no": "No 7",
        "description": "土张几象料。",
        "callNo": 915,
        "status": 1,
        "updatedAt": "1976-03-23"
      },
      {
        "key": 8,
        "no": "No 8",
        "description": "斯运难等想社养。",
        "callNo": 680,
        "status": 1,
        "updatedAt": "1982-12-18"
      },
      {
        "key": 9,
        "no": "No 9",
        "description": "料级社增质发也。",
        "callNo": 893,
        "status": 1,
        "updatedAt": "2011-03-09"
      },
      {
        "key": 10,
        "no": "No 10",
        "description": "地教节结周音级。",
        "callNo": 158,
        "status": 1,
        "updatedAt": "1974-02-26"
      }
    ],
    "pageSize": 10,
    "pageNo": 1,
    "totalPage": 6,
    "totalCount": 57
  },
  "status": 200,
  "timestamp": "433322634478"
}